{
  "swagger": "2.0",
  "info": {
    "title": "srenity/organization/v1/organization.proto",
    "version": "version not set"
  },
  "consumes": [
    "application/json"
  ],
  "produces": [
    "application/json"
  ],
  "paths": {
    "/v1/organization/users": {
      "post": {
        "operationId": "UserService_RegisterUser",
        "responses": {
          "200": {
            "description": "A successful response.",
            "schema": {
              "$ref": "#/definitions/v1RegisterUserResponse"
            }
          },
          "default": {
            "description": "An unexpected error response",
            "schema": {
              "$ref": "#/definitions/rpcStatus"
            }
          }
        },
        "parameters": [
          {
            "name": "body",
            "in": "body",
            "required": true,
            "schema": {
              "$ref": "#/definitions/v1RegisterUserRequest"
            }
          }
        ],
        "tags": [
          "UserService"
        ]
      }
    }
  },
  "definitions": {
    "RegisterUserRequestRoleAssignment": {
      "type": "object",
      "properties": {
        "objectId": {
          "type": "string"
        },
        "role": {
          "$ref": "#/definitions/v1Role"
        }
      }
    },
    "protobufAny": {
      "type": "object",
      "properties": {
        "typeUrl": {
          "type": "string"
        },
        "value": {
          "type": "string",
          "format": "byte"
        }
      }
    },
    "rpcStatus": {
      "type": "object",
      "properties": {
        "code": {
          "type": "integer",
          "format": "int32"
        },
        "message": {
          "type": "string"
        },
        "details": {
          "type": "array",
          "items": {
            "$ref": "#/definitions/protobufAny"
          }
        }
      }
    },
    "v1RegisterUserRequest": {
      "type": "object",
      "properties": {
        "id": {
          "type": "string"
        },
        "firstName": {
          "type": "string"
        },
        "lastName": {
          "type": "string"
        },
        "email": {
          "type": "string"
        },
        "roleAssignments": {
          "type": "array",
          "items": {
            "$ref": "#/definitions/RegisterUserRequestRoleAssignment"
          }
        }
      }
    },
    "v1RegisterUserResponse": {
      "type": "object"
    },
    "v1Role": {
      "type": "string",
      "enum": [
        "ROLE_UNSPECIFIED",
        "APARTMENT_TENANT"
      ],
      "default": "ROLE_UNSPECIFIED",
      "title": "- APARTMENT_TENANT: Apartment roles"
    }
  }
}
